{"count":200,"next":"https:\/\/cryptopanic.com\/api\/v1\/posts\/?auth_token=870f6289e6cd7b8c6524ba2f3f90179445c1373b&currencies=BTC&page=2","previous":null,"results":[{"kind":"news","domain":"bitcoin.com","source":{"title":"Bitcoin.com","region":"en","domain":"bitcoin.com","path":null},"title":"Bitcoin, Ethereum Technical Analysis: BTC Rises to $29,000 for First Time Since Last June","published_at":"2023-03-30T12:45:31Z","slug":"Bitcoin-Ethereum-Technical-Analysis-BTC-Rises-to-29000-for-First-Time-Since-Last-June","currencies":[{"code":"BTC","title":"Bitcoin","slug":"bitcoin","url":"https:\/\/cryptopanic.com\/news\/bitcoin\/"},{"code":"ETH","title":"Ethereum","slug":"ethereum","url":"https:\/\/cryptopanic.com\/news\/ethereum\/"}],"id":18000557,"url":"https:\/\/cryptopanic.com\/news\/18000557\/Bitcoin-Ethereum-Technical-Analysis-BTC-Rises-to-29000-for-First-Time-Since-Last-June","created_at":"2023-03-30T12:45:31Z","votes":{"negative":0,"positive":0,"important":0,"liked":0,"disliked":0,"lol":0,"toxic":0,"saved":0,"comments":0}},{"kind":"news","domain":"coindesk.com","source":{"title":"CoinDesk","region":"en","domain":"coindesk.com","path":null},"title":"First Mover Americas: Investors Dig Risk Again","published_at":"2023-03-30T12:32:07Z","slug":"First-Mover-Americas-Investors-Dig-Risk-Again","currencies":[{"code":"BTC","title":"Bitcoin","slug":"bitcoin","url":"https:\/\/cryptopanic.com\/news\/bitcoin\/"},{"code":"ETH","title":"Ethereum","slug":"ethereum","url":"https:\/\/cryptopanic.com\/news\/ethereum\/"}],"id":18000547,"url":"https:\/\/cryptopanic.com\/news\/18000547\/First-Mover-Americas-Investors-Dig-Risk-Again","created_at":"2023-03-30T12:32:07Z","votes":{"negative":0,"positive":0,"important":0,"liked":0,"disliked":0,"lol":0,"toxic":0,"saved":0,"comments":0}},{"kind":"news","domain":"cointelegraph.com","votes":{"negative":0,"positive":1,"important":1,"liked":1,"disliked":0,"lol":0,"toxic":0,"saved":0,"comments":0},"source":{"title":"CoinTelegraph","region":"en","domain":"cointelegraph.com","path":null},"title":"Bitcoin spikes above $29K as 'fakeout' fuels BTC price strength doubts","published_at":"2023-03-30T12:03:03Z","slug":"Bitcoin-spikes-above-29K-as-fakeout-fuels-BTC-price-strength-doubts","currencies":[{"code":"BTC","title":"Bitcoin","slug":"bitcoin","url":"https:\/\/cryptopanic.com\/news\/bitcoin\/"}],"id":18000464,"url":"https:\/\/cryptopanic.com\/news\/18000464\/Bitcoin-spikes-above-29K-as-fakeout-fuels-BTC-price-strength-doubts","created_at":"2023-03-30T12:03:03Z"},{"kind":"news","domain":"cryptoslate.com","source":{"title":"CryptoSlate","region":"en","domain":"cryptoslate.com","path":null},"title":"How gold and Bitcoin are responding to inflationary pressures \u2013 comparing the 1970s and the 2020s","published_at":"2023-03-30T12:00:24Z","slug":"How-gold-and-Bitcoin-are-responding-to-inflationary-pressures-comparing-the-1970s-and-the-2020s","currencies":[{"code":"BTC","title":"Bitcoin","slug":"bitcoin","url":"https:\/\/cryptopanic.com\/news\/bitcoin\/"}],"id":18000467,"url":"https:\/\/cryptopanic.com\/news\/18000467\/How-gold-and-Bitcoin-are-responding-to-inflationary-pressures-comparing-the-1970s-and-the-2020s","created_at":"2023-03-30T12:00:24Z","votes":{"negative":0,"positive":0,"important":0,"liked":0,"disliked":0,"lol":0,"toxic":0,"saved":0,"comments":0}},{"kind":"news","domain":"bitcoinist.com","votes":{"negative":0,"positive":0,"important":1,"liked":0,"disliked":2,"lol":0,"toxic":0,"saved":0,"comments":0},"source":{"title":"Bitcoinist","region":"en","domain":"bitcoinist.com","path":null},"title":"Senator Warren Touts Building \u2018Anti-Crypto Army\u2019 In Re-Election Campaign","published_at":"2023-03-30T12:00:10Z","slug":"Senator-Warren-Touts-Building-Anti-Crypto-Army-In-Re-Election-Campaign","currencies":[{"code":"BTC","title":"Bitcoin","slug":"bitcoin","url":"https:\/\/cryptopanic.com\/news\/bitcoin\/"}],"id":18000462,"url":"https:\/\/cryptopanic.com\/news\/18000462\/Senator-Warren-Touts-Building-Anti-Crypto-Army-In-Re-Election-Campaign","created_at":"2023-03-30T12:00:10Z"},{"kind":"news","domain":"cryptoslate.com","source":{"title":"CryptoSlate","region":"en","domain":"cryptoslate.com","path":null},"title":"CryptoSlate wMarket Update: Bitcoin $29,000 rally short-lived as top 10 assets plunge","published_at":"2023-03-30T11:45:48Z","slug":"CryptoSlate-wMarket-Update-Bitcoin-29000-rally-short-lived-as-top-10-assets-plunge","currencies":[{"code":"BTC","title":"Bitcoin","slug":"bitcoin","url":"https:\/\/cryptopanic.com\/news\/bitcoin\/"},{"code":"ETH","title":"Ethereum","slug":"ethereum","url":"https:\/\/cryptopanic.com\/news\/ethereum\/"}],"id":18000433,"url":"https:\/\/cryptopanic.com\/news\/18000433\/CryptoSlate-wMarket-Update-Bitcoin-29000-rally-short-lived-as-top-10-assets-plunge","created_at":"2023-03-30T11:45:48Z","votes":{"negative":0,"positive":0,"important":0,"liked":0,"disliked":0,"lol":0,"toxic":0,"saved":0,"comments":0}},{"kind":"news","domain":"coindesk.com","votes":{"negative":0,"positive":1,"important":0,"liked":0,"disliked":0,"lol":0,"toxic":0,"saved":0,"comments":0},"source":{"title":"CoinDesk","region":"en","domain":"coindesk.com","path":null},"title":"Bitcoin Volatility Likely as Options Worth $4B Expire on Friday","published_at":"2023-03-30T11:30:51Z","slug":"Bitcoin-Volatility-Likely-as-Options-Worth-4B-Expire-on-Friday","currencies":[{"code":"BTC","title":"Bitcoin","slug":"bitcoin","url":"https:\/\/cryptopanic.com\/news\/bitcoin\/"}],"id":18000398,"url":"https:\/\/cryptopanic.com\/news\/18000398\/Bitcoin-Volatility-Likely-as-Options-Worth-4B-Expire-on-Friday","created_at":"2023-03-30T11:30:51Z"},{"kind":"news","domain":"zycrypto.com","source":{"title":"ZyCrypto","region":"en","domain":"zycrypto.com","path":null},"title":"\u2018Shop Till You Drop\u2019: Rich Dad Poor Dad Author Explains Why Now\u2019s A Great Time To Buy Bitcoin","published_at":"2023-03-30T11:24:50Z","slug":"Shop-Till-You-Drop-Rich-Dad-Poor-Dad-Author-Explains-Why-Nows-A-Great-Time-To-Buy-Bitcoin","currencies":[{"code":"BTC","title":"Bitcoin","slug":"bitcoin","url":"https:\/\/cryptopanic.com\/news\/bitcoin\/"}],"id":18000385,"url":"https:\/\/cryptopanic.com\/news\/18000385\/Shop-Till-You-Drop-Rich-Dad-Poor-Dad-Author-Explains-Why-Nows-A-Great-Time-To-Buy-Bitcoin","created_at":"2023-03-30T11:24:50Z","votes":{"negative":0,"positive":0,"important":0,"liked":0,"disliked":0,"lol":0,"toxic":0,"saved":0,"comments":0}},{"kind":"news","domain":"cointelegraph.com","source":{"title":"CoinTelegraph","region":"en","domain":"cointelegraph.com","path":null},"title":"Crypto donations to surpass $10B in a decade: The Giving Block","published_at":"2023-03-30T11:15:35Z","slug":"Crypto-donations-to-surpass-10B-in-a-decade-The-Giving-Block","currencies":[{"code":"BTC","title":"Bitcoin","slug":"bitcoin","url":"https:\/\/cryptopanic.com\/news\/bitcoin\/"},{"code":"ETH","title":"Ethereum","slug":"ethereum","url":"https:\/\/cryptopanic.com\/news\/ethereum\/"},{"code":"USDC","title":"USD Coin","slug":"usd-coin","url":"https:\/\/cryptopanic.com\/news\/usd-coin\/"}],"id":18000370,"url":"https:\/\/cryptopanic.com\/news\/18000370\/Crypto-donations-to-surpass-10B-in-a-decade-The-Giving-Block","created_at":"2023-03-30T11:15:35Z","votes":{"negative":0,"positive":0,"important":0,"liked":0,"disliked":0,"lol":0,"toxic":0,"saved":0,"comments":0}},{"kind":"news","domain":"u.today","source":{"title":"U.Today","region":"en","domain":"u.today","path":null},"title":"$4 Billion Bitcoin (BTC) Options About to Expire: How It Might Affect Price Performance","published_at":"2023-03-30T11:08:00Z","slug":"4-Billion-Bitcoin-BTC-Options-About-to-Expire-How-It-Might-Affect-Price-Performance","currencies":[{"code":"BTC","title":"Bitcoin","slug":"bitcoin","url":"https:\/\/cryptopanic.com\/news\/bitcoin\/"}],"id":18000349,"url":"https:\/\/cryptopanic.com\/news\/18000349\/4-Billion-Bitcoin-BTC-Options-About-to-Expire-How-It-Might-Affect-Price-Performance","created_at":"2023-03-30T11:08:00Z","votes":{"negative":0,"positive":0,"important":0,"liked":0,"disliked":0,"lol":0,"toxic":0,"saved":0,"comments":0}},{"kind":"media","domain":"youtube.com","source":{"title":"Alessio Rastani","region":"en","domain":"youtube.com","path":null},"title":"A Strange Situation with Bitcoin and Stock Markets (divergences in key markets)","published_at":"2023-03-30T11:00:09Z","slug":"A-Strange-Situation-with-Bitcoin-and-Stock-Markets-divergences-in-key-markets","currencies":[{"code":"BTC","title":"Bitcoin","slug":"bitcoin","url":"https:\/\/cryptopanic.com\/news\/bitcoin\/"}],"id":18000351,"url":"https:\/\/cryptopanic.com\/news\/18000351\/A-Strange-Situation-with-Bitcoin-and-Stock-Markets-divergences-in-key-markets","created_at":"2023-03-30T11:00:09Z","votes":{"negative":0,"positive":0,"important":0,"liked":0,"disliked":0,"lol":0,"toxic":0,"saved":0,"comments":0}},{"kind":"news","domain":"bitcoinist.com","source":{"title":"Bitcoinist","region":"en","domain":"bitcoinist.com","path":null},"title":"SEC Boss Gary Gensler Seeking $2.436 Billion To Protect Investors","published_at":"2023-03-30T11:00:08Z","slug":"SEC-Boss-Gary-Gensler-Seeking-2436-Billion-To-Protect-Investors","currencies":[{"code":"BTC","title":"Bitcoin","slug":"bitcoin","url":"https:\/\/cryptopanic.com\/news\/bitcoin\/"}],"id":18000344,"url":"https:\/\/cryptopanic.com\/news\/18000344\/SEC-Boss-Gary-Gensler-Seeking-2436-Billion-To-Protect-Investors","created_at":"2023-03-30T11:00:08Z","votes":{"negative":0,"positive":0,"important":0,"liked":0,"disliked":0,"lol":0,"toxic":0,"saved":0,"comments":0}},{"kind":"news","domain":"cointelegraph.com","source":{"title":"CoinTelegraph","region":"en","domain":"cointelegraph.com","path":null},"title":"From Bat-Signal to Bitcoin: Projecting 'Orange Pill' on banks as EU drives crypto regulation","published_at":"2023-03-30T10:54:00Z","slug":"From-Bat-Signal-to-Bitcoin-Projecting-Orange-Pill-on-banks-as-EU-drives-crypto-regulation","currencies":[{"code":"BTC","title":"Bitcoin","slug":"bitcoin","url":"https:\/\/cryptopanic.com\/news\/bitcoin\/"}],"id":18000304,"url":"https:\/\/cryptopanic.com\/news\/18000304\/From-Bat-Signal-to-Bitcoin-Projecting-Orange-Pill-on-banks-as-EU-drives-crypto-regulation","created_at":"2023-03-30T10:54:00Z","votes":{"negative":0,"positive":0,"important":0,"liked":0,"disliked":0,"lol":0,"toxic":0,"saved":0,"comments":0}},{"kind":"news","domain":"forkast.news","source":{"title":"Forkast.News","region":"en","domain":"forkast.news","path":null},"title":"Bitcoin rises; Ether, other top 10 cryptos fall amid fresh Binance allegations","published_at":"2023-03-30T10:42:26Z","slug":"Bitcoin-rises-Ether-other-top-10-cryptos-fall-amid-fresh-Binance-allegations","currencies":[{"code":"BTC","title":"Bitcoin","slug":"bitcoin","url":"https:\/\/cryptopanic.com\/news\/bitcoin\/"}],"id":18000300,"url":"https:\/\/cryptopanic.com\/news\/18000300\/Bitcoin-rises-Ether-other-top-10-cryptos-fall-amid-fresh-Binance-allegations","created_at":"2023-03-30T10:42:26Z","votes":{"negative":0,"positive":0,"important":0,"liked":0,"disliked":0,"lol":0,"toxic":0,"saved":0,"comments":0}},{"kind":"news","domain":"protos.com","source":{"title":"Protos.com","region":"en","domain":"protos.com","path":null},"title":"Shinobi proposes zero-knowledge proofs on Bitcoin","published_at":"2023-03-30T10:30:38Z","slug":"Shinobi-proposes-zero-knowledge-proofs-on-Bitcoin","currencies":[{"code":"BTC","title":"Bitcoin","slug":"bitcoin","url":"https:\/\/cryptopanic.com\/news\/bitcoin\/"}],"id":18000291,"url":"https:\/\/cryptopanic.com\/news\/18000291\/Shinobi-proposes-zero-knowledge-proofs-on-Bitcoin","created_at":"2023-03-30T10:30:38Z","votes":{"negative":0,"positive":0,"important":0,"liked":0,"disliked":0,"lol":0,"toxic":0,"saved":0,"comments":0}},{"kind":"news","domain":"coinspeaker.com","source":{"title":"Coinspeaker","region":"en","domain":"coinspeaker.com","path":null},"title":"Andy Warhol Artworks to Launch on New Blockchain-based Platform","published_at":"2023-03-30T10:12:32Z","slug":"Andy-Warhol-Artworks-to-Launch-on-New-Blockchain-based-Platform","currencies":[{"code":"BTC","title":"Bitcoin","slug":"bitcoin","url":"https:\/\/cryptopanic.com\/news\/bitcoin\/"}],"id":17999725,"url":"https:\/\/cryptopanic.com\/news\/17999725\/Andy-Warhol-Artworks-to-Launch-on-New-Blockchain-based-Platform","created_at":"2023-03-30T10:12:32Z","votes":{"negative":0,"positive":0,"important":0,"liked":0,"disliked":0,"lol":0,"toxic":0,"saved":0,"comments":0}},{"kind":"news","domain":"cryptoglobe.com","votes":{"negative":0,"positive":4,"important":2,"liked":4,"disliked":0,"lol":0,"toxic":0,"saved":0,"comments":1},"source":{"title":"CryptoGlobe","region":"en","domain":"cryptoglobe.com","path":null},"title":"Bitcoin\u2019s \u2018Real Fun\u2019 Awaits in 2024-2025, Crypto Analyst Expects Major Upswing","published_at":"2023-03-30T09:44:04Z","slug":"Bitcoins-Real-Fun-Awaits-in-2024-2025-Crypto-Analyst-Expects-Major-Upswing","currencies":[{"code":"BTC","title":"Bitcoin","slug":"bitcoin","url":"https:\/\/cryptopanic.com\/news\/bitcoin\/"}],"id":17999268,"url":"https:\/\/cryptopanic.com\/news\/17999268\/Bitcoins-Real-Fun-Awaits-in-2024-2025-Crypto-Analyst-Expects-Major-Upswing","created_at":"2023-03-30T09:44:04Z"},{"kind":"news","domain":"cryptoglobe.com","source":{"title":"CryptoGlobe","region":"en","domain":"cryptoglobe.com","path":null},"title":"Galaxy Digital CEO Calls $BTC and $ETH \u2018The Two Best-Performing Assets in the World Over the Last Three Years\u2019","published_at":"2023-03-30T09:16:20Z","slug":"Galaxy-Digital-CEO-Calls-BTC-and-ETH-The-Two-Best-Performing-Assets-in-the-World-Over-the-Last-Three-Years","currencies":[{"code":"BTC","title":"Bitcoin","slug":"bitcoin","url":"https:\/\/cryptopanic.com\/news\/bitcoin\/"},{"code":"ETH","title":"Ethereum","slug":"ethereum","url":"https:\/\/cryptopanic.com\/news\/ethereum\/"}],"id":17998547,"url":"https:\/\/cryptopanic.com\/news\/17998547\/Galaxy-Digital-CEO-Calls-BTC-and-ETH-The-Two-Best-Performing-Assets-in-the-World-Over-the-Last-Three-Years","created_at":"2023-03-30T09:16:20Z","votes":{"negative":0,"positive":0,"important":0,"liked":0,"disliked":0,"lol":0,"toxic":0,"saved":0,"comments":0}},{"kind":"news","domain":"cryptoslate.com","source":{"title":"CryptoSlate","region":"en","domain":"cryptoslate.com","path":null},"title":"Record-breaking BTC options set to expire with over $4B notional value","published_at":"2023-03-30T09:15:57Z","slug":"Record-breaking-BTC-options-set-to-expire-with-over-4B-notional-value","currencies":[{"code":"BTC","title":"Bitcoin","slug":"bitcoin","url":"https:\/\/cryptopanic.com\/news\/bitcoin\/"}],"id":17998297,"url":"https:\/\/cryptopanic.com\/news\/17998297\/Record-breaking-BTC-options-set-to-expire-with-over-4B-notional-value","created_at":"2023-03-30T09:15:57Z","votes":{"negative":0,"positive":0,"important":0,"liked":0,"disliked":0,"lol":0,"toxic":0,"saved":0,"comments":0}},{"kind":"news","domain":"u.today","votes":{"negative":0,"positive":2,"important":2,"liked":2,"disliked":0,"lol":1,"toxic":0,"saved":0,"comments":1},"source":{"title":"U.Today","region":"en","domain":"u.today","path":null},"title":"Cardano (ADA) Will Be Lucky to Drop Only 30% Against Bitcoin (BTC): Top Crypto Analyst Benjamin Cowen","published_at":"2023-03-30T09:11:00Z","slug":"Cardano-ADA-Will-Be-Lucky-to-Drop-Only-30-Against-Bitcoin-BTC-Top-Crypto-Analyst-Benjamin-Cowen","currencies":[{"code":"BTC","title":"Bitcoin","slug":"bitcoin","url":"https:\/\/cryptopanic.com\/news\/bitcoin\/"},{"code":"ADA","title":"Cardano","slug":"cardano","url":"https:\/\/cryptopanic.com\/news\/cardano\/"}],"id":17998316,"url":"https:\/\/cryptopanic.com\/news\/17998316\/Cardano-ADA-Will-Be-Lucky-to-Drop-Only-30-Against-Bitcoin-BTC-Top-Crypto-Analyst-Benjamin-Cowen","created_at":"2023-03-30T09:11:00Z"}]}