{"count":200,"next":"https:\/\/cryptopanic.com\/api\/v1\/posts\/?auth_token=870f6289e6cd7b8c6524ba2f3f90179445c1373b&page=2","previous":null,"results":[{"kind":"news","domain":"ambcrypto.com","source":{"title":"AMBCrypto","region":"en","domain":"ambcrypto.com","path":null},"title":"How has Uniswap [UNI] benefitted from the Arbitrum AirDrop? Analyzing\u2026","published_at":"2023-03-30T00:30:29Z","slug":"How-has-Uniswap-UNI-benefitted-from-the-Arbitrum-AirDrop-Analyzing","currencies":[{"code":"UNI","title":"Uniswap","slug":"uniswap","url":"https:\/\/cryptopanic.com\/news\/uniswap\/"},{"code":"ARB","title":"Arbitrum","slug":"arbitrum","url":"https:\/\/cryptopanic.com\/news\/arbitrum\/"}],"id":17992666,"url":"https:\/\/cryptopanic.com\/news\/17992666\/How-has-Uniswap-UNI-benefitted-from-the-Arbitrum-AirDrop-Analyzing","created_at":"2023-03-30T00:30:29Z","votes":{"negative":0,"positive":0,"important":0,"liked":0,"disliked":0,"lol":0,"toxic":0,"saved":0,"comments":0}},{"kind":"news","domain":"decrypt.co","source":{"title":"Decrypt","region":"en","domain":"decrypt.co","path":null},"title":"Virtual Couture? Vivienne Tam\u2019s First NFT Dress Struts Around Metaverse Fashion Week","published_at":"2023-03-30T00:14:14Z","slug":"Virtual-Couture-Vivienne-Tams-First-NFT-Dress-Struts-Around-Metaverse-Fashion-Week","currencies":[{"code":"MANA","title":"Decentraland","slug":"decentraland","url":"https:\/\/cryptopanic.com\/news\/decentraland\/"}],"id":17992601,"url":"https:\/\/cryptopanic.com\/news\/17992601\/Virtual-Couture-Vivienne-Tams-First-NFT-Dress-Struts-Around-Metaverse-Fashion-Week","created_at":"2023-03-30T00:14:14Z","votes":{"negative":0,"positive":0,"important":0,"liked":0,"disliked":0,"lol":0,"toxic":0,"saved":0,"comments":0}},{"kind":"news","domain":"dailyhodl.com","source":{"title":"The Daily Hodl","region":"en","domain":"dailyhodl.com","path":null},"title":"Crypto Whales Abruptly Move Over $186,000,000 in Ethereum Rival Solana \u2013 Here\u2019s Where the Crypto Is Going","published_at":"2023-03-30T00:04:28Z","slug":"Crypto-Whales-Abruptly-Move-Over-186000000-in-Ethereum-Rival-Solana-Heres-Where-the-Crypto-Is-Going","currencies":[{"code":"ETH","title":"Ethereum","slug":"ethereum","url":"https:\/\/cryptopanic.com\/news\/ethereum\/"},{"code":"SOL","title":"Solana","slug":"solana","url":"https:\/\/cryptopanic.com\/news\/solana\/"}],"id":17992604,"url":"https:\/\/cryptopanic.com\/news\/17992604\/Crypto-Whales-Abruptly-Move-Over-186000000-in-Ethereum-Rival-Solana-Heres-Where-the-Crypto-Is-Going","created_at":"2023-03-30T00:04:28Z","votes":{"negative":0,"positive":0,"important":0,"liked":0,"disliked":0,"lol":0,"toxic":0,"saved":0,"comments":0}},{"kind":"news","domain":"coindesk.com","source":{"title":"CoinDesk","region":"en","domain":"coindesk.com","path":null},"title":"First Mover Asia: Bitcoin Rises Over $28.3K Despite Binance Legal Woes","published_at":"2023-03-29T23:56:11Z","slug":"First-Mover-Asia-Bitcoin-Rises-Over-283K-Despite-Binance-Legal-Woes","currencies":[{"code":"BTC","title":"Bitcoin","slug":"bitcoin","url":"https:\/\/cryptopanic.com\/news\/bitcoin\/"},{"code":"ETH","title":"Ethereum","slug":"ethereum","url":"https:\/\/cryptopanic.com\/news\/ethereum\/"}],"id":17992587,"url":"https:\/\/cryptopanic.com\/news\/17992587\/First-Mover-Asia-Bitcoin-Rises-Over-283K-Despite-Binance-Legal-Woes","created_at":"2023-03-29T23:56:11Z","votes":{"negative":0,"positive":0,"important":0,"liked":0,"disliked":0,"lol":0,"toxic":0,"saved":0,"comments":0}},{"kind":"news","domain":"bitcoinist.com","votes":{"negative":0,"positive":0,"important":1,"liked":0,"disliked":0,"lol":0,"toxic":0,"saved":0,"comments":0},"source":{"title":"Bitcoinist","region":"en","domain":"bitcoinist.com","path":null},"title":"This Chart Says Bitcoin Is A Leading Indicator For Inflation","published_at":"2023-03-29T23:09:34Z","slug":"This-Chart-Says-Bitcoin-Is-A-Leading-Indicator-For-Inflation","currencies":[{"code":"BTC","title":"Bitcoin","slug":"bitcoin","url":"https:\/\/cryptopanic.com\/news\/bitcoin\/"}],"id":17992532,"url":"https:\/\/cryptopanic.com\/news\/17992532\/This-Chart-Says-Bitcoin-Is-A-Leading-Indicator-For-Inflation","created_at":"2023-03-29T23:09:34Z"},{"kind":"news","domain":"theblock.co","votes":{"negative":0,"positive":1,"important":0,"liked":0,"disliked":0,"lol":1,"toxic":0,"saved":0,"comments":4},"source":{"title":"The Block","region":"en","domain":"theblock.co","path":null},"title":"SEC Chair Gensler: Existing rules regulate crypto, legislation unnecessary","published_at":"2023-03-29T23:07:04Z","slug":"SEC-Chair-Gensler-Existing-rules-regulate-crypto-legislation-unnecessary","id":17992538,"url":"https:\/\/cryptopanic.com\/news\/17992538\/SEC-Chair-Gensler-Existing-rules-regulate-crypto-legislation-unnecessary","created_at":"2023-03-29T23:07:04Z"},{"kind":"news","domain":"bitcoinist.com","source":{"title":"Bitcoinist","region":"en","domain":"bitcoinist.com","path":null},"title":"Russia Postpones Launch Of Digital Ruble","published_at":"2023-03-29T23:00:38Z","slug":"Russia-Postpones-Launch-Of-Digital-Ruble","id":17992533,"url":"https:\/\/cryptopanic.com\/news\/17992533\/Russia-Postpones-Launch-Of-Digital-Ruble","created_at":"2023-03-29T23:00:38Z","votes":{"negative":0,"positive":0,"important":0,"liked":0,"disliked":0,"lol":0,"toxic":0,"saved":0,"comments":0}},{"kind":"news","domain":"decrypt.co","source":{"title":"Decrypt","region":"en","domain":"decrypt.co","path":null},"title":"Pussy Riot Protest Art NFT Triggers Russian Criminal Charges","published_at":"2023-03-29T22:59:02Z","slug":"Pussy-Riot-Protest-Art-NFT-Triggers-Russian-Criminal-Charges","currencies":[{"code":"ETH","title":"Ethereum","slug":"ethereum","url":"https:\/\/cryptopanic.com\/news\/ethereum\/"}],"id":17992534,"url":"https:\/\/cryptopanic.com\/news\/17992534\/Pussy-Riot-Protest-Art-NFT-Triggers-Russian-Criminal-Charges","created_at":"2023-03-29T22:59:02Z","votes":{"negative":0,"positive":0,"important":0,"liked":0,"disliked":0,"lol":0,"toxic":0,"saved":0,"comments":0}},{"kind":"news","domain":"theblock.co","votes":{"negative":1,"positive":0,"important":1,"liked":0,"disliked":0,"lol":0,"toxic":0,"saved":0,"comments":0},"source":{"title":"The Block","region":"en","domain":"theblock.co","path":null},"title":"Binance\u2019s bad days could be good for Kraken","published_at":"2023-03-29T22:46:53Z","slug":"Binances-bad-days-could-be-good-for-Kraken","id":17992512,"url":"https:\/\/cryptopanic.com\/news\/17992512\/Binances-bad-days-could-be-good-for-Kraken","created_at":"2023-03-29T22:46:53Z"},{"kind":"news","domain":"cointelegraph.com","source":{"title":"CoinTelegraph","region":"en","domain":"cointelegraph.com","path":null},"title":"Shrapnel wows at GDC, Undead Blocks hot take, Second Trip: Web3 Gamer","published_at":"2023-03-29T22:40:08Z","slug":"Shrapnel-wows-at-GDC-Undead-Blocks-hot-take-Second-Trip-Web3-Gamer","id":17992509,"url":"https:\/\/cryptopanic.com\/news\/17992509\/Shrapnel-wows-at-GDC-Undead-Blocks-hot-take-Second-Trip-Web3-Gamer","created_at":"2023-03-29T22:40:08Z","votes":{"negative":0,"positive":0,"important":0,"liked":0,"disliked":0,"lol":0,"toxic":0,"saved":0,"comments":0}},{"kind":"media","domain":"youtube.com","votes":{"negative":0,"positive":2,"important":0,"liked":0,"disliked":0,"lol":0,"toxic":0,"saved":0,"comments":0},"source":{"title":"TheChartGuys","region":"en","domain":"youtube.com","path":null},"title":"Bitcoin Bull Flag?","published_at":"2023-03-29T22:36:57Z","slug":"Bitcoin-Bull-Flag","currencies":[{"code":"BTC","title":"Bitcoin","slug":"bitcoin","url":"https:\/\/cryptopanic.com\/news\/bitcoin\/"}],"id":17992513,"url":"https:\/\/cryptopanic.com\/news\/17992513\/Bitcoin-Bull-Flag","created_at":"2023-03-29T22:36:57Z"},{"kind":"media","domain":"youtube.com","source":{"title":"Simply Bitcoin","region":"en","domain":"youtube.com","path":null},"title":"JAMES LAVISH: Message to Jerome Powell","published_at":"2023-03-29T22:31:00Z","slug":"JAMES-LAVISH-Message-to-Jerome-Powell","id":17992505,"url":"https:\/\/cryptopanic.com\/news\/17992505\/JAMES-LAVISH-Message-to-Jerome-Powell","created_at":"2023-03-29T22:31:00Z","votes":{"negative":0,"positive":0,"important":0,"liked":0,"disliked":0,"lol":0,"toxic":0,"saved":0,"comments":0}},{"kind":"news","domain":"ambcrypto.com","votes":{"negative":0,"positive":1,"important":0,"liked":1,"disliked":0,"lol":0,"toxic":0,"saved":0,"comments":0},"source":{"title":"AMBCrypto","region":"en","domain":"ambcrypto.com","path":null},"title":"XRP exudes confidence before SEC verdict as March gains cross\u2026","published_at":"2023-03-29T22:30:32Z","slug":"XRP-exudes-confidence-before-SEC-verdict-as-March-gains-cross","currencies":[{"code":"XRP","title":"XRP","slug":"ripple","url":"https:\/\/cryptopanic.com\/news\/ripple\/"}],"id":17992498,"url":"https:\/\/cryptopanic.com\/news\/17992498\/XRP-exudes-confidence-before-SEC-verdict-as-March-gains-cross","created_at":"2023-03-29T22:30:32Z"},{"kind":"news","domain":"dailyhodl.com","votes":{"negative":0,"positive":1,"important":1,"liked":3,"disliked":0,"lol":1,"toxic":0,"saved":0,"comments":1},"source":{"title":"The Daily Hodl","region":"en","domain":"dailyhodl.com","path":null},"title":"Biden Administration\u2019s Crypto Actions Will Have Election Consequences, According to ARK Invest\u2019s Cathie Wood","published_at":"2023-03-29T22:10:45Z","slug":"Biden-Administrations-Crypto-Actions-Will-Have-Election-Consequences-According-to-ARK-Invests-Cathie-Wood","currencies":[{"code":"BTC","title":"Bitcoin","slug":"bitcoin","url":"https:\/\/cryptopanic.com\/news\/bitcoin\/"}],"id":17992489,"url":"https:\/\/cryptopanic.com\/news\/17992489\/Biden-Administrations-Crypto-Actions-Will-Have-Election-Consequences-According-to-ARK-Invests-Cathie-Wood","created_at":"2023-03-29T22:10:45Z"},{"kind":"news","domain":"cryptoslate.com","votes":{"negative":0,"positive":1,"important":1,"liked":1,"disliked":1,"lol":2,"toxic":0,"saved":0,"comments":5},"source":{"title":"CryptoSlate","region":"en","domain":"cryptoslate.com","path":null},"title":"SEC\u2019s Gary Gensler seeks for more staff, resources to regulate crypto","published_at":"2023-03-29T22:08:14Z","slug":"SECs-Gary-Gensler-seeks-for-more-staff-resources-to-regulate-crypto","id":17992474,"url":"https:\/\/cryptopanic.com\/news\/17992474\/SECs-Gary-Gensler-seeks-for-more-staff-resources-to-regulate-crypto","created_at":"2023-03-29T22:08:14Z"},{"kind":"news","domain":"decrypt.co","source":{"title":"Decrypt","region":"en","domain":"decrypt.co","path":null},"title":"At Least $37M Worth of y00ts NFTs Migrate to Polygon From Solana in One Day","published_at":"2023-03-29T22:01:45Z","slug":"At-Least-37M-Worth-of-y00ts-NFTs-Migrate-to-Polygon-From-Solana-in-One-Day","currencies":[{"code":"ETH","title":"Ethereum","slug":"ethereum","url":"https:\/\/cryptopanic.com\/news\/ethereum\/"},{"code":"MATIC","title":"Polygon","slug":"matic-network","url":"https:\/\/cryptopanic.com\/news\/matic-network\/"},{"code":"SOL","title":"Solana","slug":"solana","url":"https:\/\/cryptopanic.com\/news\/solana\/"}],"id":17992475,"url":"https:\/\/cryptopanic.com\/news\/17992475\/At-Least-37M-Worth-of-y00ts-NFTs-Migrate-to-Polygon-From-Solana-in-One-Day","created_at":"2023-03-29T22:01:45Z","votes":{"negative":0,"positive":0,"important":0,"liked":0,"disliked":0,"lol":0,"toxic":0,"saved":0,"comments":0}},{"kind":"news","domain":"dailyhodl.com","votes":{"negative":0,"positive":0,"important":0,"liked":1,"disliked":0,"lol":0,"toxic":0,"saved":0,"comments":0},"source":{"title":"The Daily Hodl","region":"en","domain":"dailyhodl.com","path":null},"title":"Billionaire Mike Novogratz\u2019s Galaxy Digital Announces $1,000,000,000 Loss in 2022","published_at":"2023-03-29T22:01:05Z","slug":"Billionaire-Mike-Novogratzs-Galaxy-Digital-Announces-1000000000-Loss-in-2022","currencies":[{"code":"BTC","title":"Bitcoin","slug":"bitcoin","url":"https:\/\/cryptopanic.com\/news\/bitcoin\/"}],"id":17992478,"url":"https:\/\/cryptopanic.com\/news\/17992478\/Billionaire-Mike-Novogratzs-Galaxy-Digital-Announces-1000000000-Loss-in-2022","created_at":"2023-03-29T22:01:05Z"},{"kind":"news","domain":"bitcoinist.com","votes":{"negative":0,"positive":1,"important":0,"liked":0,"disliked":1,"lol":1,"toxic":0,"saved":0,"comments":0},"source":{"title":"Bitcoinist","region":"en","domain":"bitcoinist.com","path":null},"title":"Australian Parliament Seeks To Accelerate Regulation Of Crypto Sector","published_at":"2023-03-29T22:00:51Z","slug":"Australian-Parliament-Seeks-To-Accelerate-Regulation-Of-Crypto-Sector","id":17992472,"url":"https:\/\/cryptopanic.com\/news\/17992472\/Australian-Parliament-Seeks-To-Accelerate-Regulation-Of-Crypto-Sector","created_at":"2023-03-29T22:00:51Z"},{"kind":"news","domain":"coindesk.com","source":{"title":"CoinDesk","region":"en","domain":"coindesk.com","path":null},"title":"Andy Warhol Artworks to Be Offered as Tokenized Investments on Ethereum","published_at":"2023-03-29T21:57:48Z","slug":"Andy-Warhol-Artworks-to-Be-Offered-as-Tokenized-Investments-on-Ethereum","currencies":[{"code":"ETH","title":"Ethereum","slug":"ethereum","url":"https:\/\/cryptopanic.com\/news\/ethereum\/"}],"id":17992473,"url":"https:\/\/cryptopanic.com\/news\/17992473\/Andy-Warhol-Artworks-to-Be-Offered-as-Tokenized-Investments-on-Ethereum","created_at":"2023-03-29T21:57:48Z","votes":{"negative":0,"positive":0,"important":0,"liked":0,"disliked":0,"lol":0,"toxic":0,"saved":0,"comments":0}},{"kind":"news","domain":"coindesk.com","votes":{"negative":0,"positive":1,"important":1,"liked":1,"disliked":0,"lol":0,"toxic":0,"saved":1,"comments":0},"source":{"title":"CoinDesk","region":"en","domain":"coindesk.com","path":null},"title":"USDC Outflows Surpass $10B as Tether\u2019s Stablecoin Dominance Reaches 22-Month High","published_at":"2023-03-29T21:44:00Z","slug":"USDC-Outflows-Surpass-10B-as-Tethers-Stablecoin-Dominance-Reaches-22-Month-High","currencies":[{"code":"USDT","title":"Tether","slug":"tether","url":"https:\/\/cryptopanic.com\/news\/tether\/"},{"code":"USDC","title":"USD Coin","slug":"usd-coin","url":"https:\/\/cryptopanic.com\/news\/usd-coin\/"}],"id":17992463,"url":"https:\/\/cryptopanic.com\/news\/17992463\/USDC-Outflows-Surpass-10B-as-Tethers-Stablecoin-Dominance-Reaches-22-Month-High","created_at":"2023-03-29T21:44:00Z"}]}